Analyse_av_signal_med_støy.csv

#Digilent WaveForms Oscilloscope Acquisition
#Device Name: Discovery2
#Serial Number: SN:210321B2879F
#Date Time: 2025-05-16 14:14:56.039
#Sample rate: 4e+06Hz
#Samples: 8192
#Trigger: Source: Channel 1 Type: Edge Condition: Rising Level: 0 V Hyst.: Auto HoldOff: 0 s
#Channel 1: Range: 2 V/div Offset: 0 V Sample Mode: Average
#Channel 2: Range: 2 V/div Offset: 0 V Sample Mode: Average
#Wavegen Channel 1: Running
#Mode: Simple
#Type: Sine
#Frequency: 2.25 kHz
#Period: 444.4444444 us
#Amplitude: 5 V
#Offset: 0 V
#Symmetry: 50 %
#Phase: 0 °

Time (s),Channel 1 (V),Channel 2 (V)
-0.00102375,-4.710132377736161,0.7033741971975715
-0.0010235,-4.71751939976234,0.7144124281950329
-0.00102325,-4.728599932801589,0.7107330178625486
-0.001023,-4.73229344381468,0.718091838527519
-0.00102275,-4.735986954827768,0.7180918385275223
-0.0010225,-4.750760998880114,0.7291300695249854
-0.00102225,-4.761841531919375,0.7180918385275223
-0.001022,-4.769228553945548,0.7291300695249854
-0.00102175,-4.769228553945553,0.7291300695249904
-0.0010215,-4.780309086984802,0.7401683005224434
-0.00102125,-4.784002597997894,0.7548859418523992
-0.001021,-4.776615575971721,0.7512065315199116
-0.00102075,-4.784002597997894,0.7659241728498623
-0.0010205,-4.787696109010981,0.7548859418523992
-0.00102025,-4.787696109010985,0.7512065315199099
-0.00102,-4.795083131037151,0.7475271211874255
-0.00101975,-4.806163664076409,0.7438477108549378
-0.0010195,-4.813550686102587,0.7548859418523992
-0.00101925,-4.817244197115675,0.7659241728498623
-0.001019,-4.835711752181107,0.7732829935148376
-0.00101875,-4.835711752181107,0.7659241728498656
-0.0010185,-4.835711752181107,0.773282993514836
-0.00101825,-4.835711752181107,0.7696035831823517
-0.001018,-4.835711752181107,0.7659241728498639
-0.00101775,-4.843098774207281,0.76960358318235
-0.0010175,-4.843098774207281,0.780641814179813
-0.00101725,-4.854179307246541,0.7843212245123008
-0.001017,-4.857872818259636,0.7916800451772728
-0.00101675,-4.876340373325062,0.7843212245123025
-0.0010165,-4.880033884338146,0.7880006348447868
-0.00101625,-4.876340373325061,0.7916800451772761
-0.001016,-4.868953351298887,0.8027182761747392
-0.00101575,-4.872646862311974,0.8027182761747392
-0.0010155,-4.876340373325061,0.7990388658422531
-0.00101525,-4.876340373325062,0.8027182761747409
-0.001015,-4.880033884338146,0.8063976865072252
-0.00101475,-4.872646862311978,0.8063976865072269
-0.0010145,-4.887420906364321,0.8100770968397146
-0.00101425,-4.898501439403581,0.8211153278371777
-0.001014,-4.902194950416668,0.8284741485021531
-0.00101375,-4.902194950416666,0.821115327837176
-0.0010135,-4.898501439403582,0.8174359175046917
-0.00101325,-4.902194950416666,0.821115327837176
-0.001013,-4.902194950416668,0.81743591750469
-0.00101275,-4.909581972442841,0.8321535588346407
-0.0010125,-4.916968994469014,0.8284741485021531
-0.00101225,-4.913275483455927,0.8284741485021531
-0.001012,-4.916968994469016,0.824794738169662
-0.00101175,-4.920662505482099,0.8174359175046934
-0.0010115,-4.931743038521356,0.8284741485021481
-0.00101125,-4.939130060547535,0.8211153278371777
-0.001011,-4.924356016495188,0.8284741485021531
-0.00101075,-4.931743038521361,0.8358329691671285
-0.0010105,-4.935436549534447,0.8395123794996144
-0.00101025,-4.935436549534455,0.8358329691671285
-0.00101,-4.953904104599872,0.8358329691671285
-0.00100975,-4.9760651706784,0.8468712001645915
-0.0010095,-4.9760651706784,0.8542300208295669
-0.00100925,-4.968678148652227,0.8579094311620545
-0.001009,-4.964984637639141,0.8652682518270299
-0.00100875,-4.961291126626054,0.8579094311620512
-0.0010085,-4.961291126626054,0.8505506104970826
-0.00100825,-4.976065170678393,0.8542300208295652
-0.001008,-4.979758681691488,0.8542300208295669
-0.00100775,-4.964984637639141,0.8505506104970793
-0.0010075,-4.972371659665314,0.8505506104970793
-0.00100725,-4.979758681691489,0.8542300208295686
-0.001007,-4.983452192704566,0.8579094311620545
-0.00100675,-4.964984637639149,0.8579094311620545
-0.0010065,-4.972371659665314,0.8468712001645915
-0.00100625,-4.9760651706784,0.8579094311620545
-0.001006,-4.972371659665314,0.8579094311620545
-0.00100575,-4.987145703717661,0.8505506104970793
-0.0010055,-4.987145703717661,0.8542300208295669
-0.00100525,-4.987145703717661,0.8542300208295669
-0.001005,-5.001919747770001,0.861588841494539
-0.00100475,-5.009306769796181,0.8542300208295669
-0.0010045,-4.994532725743834,0.8579094311620545
-0.00100425,-4.990839214730747,0.8579094311620545
-0.001004,-4.983452192704574,0.8615888414945456
-0.00100375,-4.983452192704574,0.8689476621595177
-0.0010035,-4.983452192704574,0.8689476621595177
-0.00100325,-4.994532725743834,0.8615888414945423
-0.001003,-4.998226236756921,0.8689476621595177
-0.00100275,-5.001919747770008,0.8542300208295669
-0.0010025,-5.001919747770008,0.8615888414945423
-0.00100225,-5.005613258783096,0.8689476621595144
-0.001002,-5.009306769796179,0.8615888414945456
-0.00100175,-5.005613258783096,0.8579094311620562
-0.0010015,-4.998226236756921,0.8652682518270299
-0.00100125,-4.994532725743834,0.8726270724920053
-0.001001,-5.001919747770008,0.8542300208295669
-0.00100075,-5.005613258783094,0.8505506104970842
-0.0010005,-5.005613258783089,0.861588841494544
-0.00100025,-4.99453272574384,0.8652682518270283
-0.001,-5.001919747770008,0.8763064828244931
-0.00099975,-5.001919747770008,0.8689476621595177
-0.0009995,-5.001919747770008,0.8652682518270299
-0.0009992499999999999,-4.994532725743834,0.8799858931569807
-0.0009989999999999999,-4.998226236756924,0.8652682518270233
-0.0009987500000000001,-5.00561325878309,0.8505506104970859
-0.0009985,-5.005613258783094,0.8505506104970793
-0.00099825,-5.001919747770008,0.8505506104970793
-0.000998,-5.005613258783094,0.8542300208295669
-0.0009977499999999999,-5.001919747770008,0.8542300208295669
-0.0009974999999999999,-4.994532725743836,0.8542300208295619
-0.0009972499999999999,-4.998226236756919,0.8431917898321039
-0.0009970000000000001,-4.994532725743836,0.8431917898321039
-0.00099675,-4.994532725743834,0.8395123794996161
-0.0009965,-4.987145703717661,0.8431917898321039
-0.00099625,-4.998226236756921,0.8505506104970793
-0.0009959999999999999,-5.009306769796181,0.8431917898321039
-0.0009957499999999999,-4.994532725743833,0.8395123794996194
-0.0009955000000000001,-4.990839214730749,0.8468712001645882
-0.00099525,-5.001919747770002,0.8505506104970776
-0.000995,-4.987145703717661,0.8579094311620545
-0.00099475,-4.979758681691488,0.8505506104970793
-0.0009944999999999999,-4.998226236756921,0.8395123794996161
-0.0009942499999999999,-4.994532725743833,0.8505506104970759
-0.0009939999999999999,-4.990839214730747,0.8431917898320989
-0.0009937500000000001,-4.990839214730747,0.8321535588346457
-0.0009935,-4.983452192704577,0.8321535588346407
-0.00099325,-4.983452192704574,0.8395123794996161
-0.000993,-4.987145703717661,0.8247947381696653
-0.0009927499999999999,-4.987145703717661,0.81743591750469
-0.0009924999999999999,-4.987145703717665,0.8174359175046934
-0.0009922499999999999,-4.994532725743829,0.8247947381696653
-0.000992,-4.983452192704579,0.8247947381696653
-0.00099175,-4.983452192704574,0.81743591750469
-0.0009915,-4.9760651706784,0.8137565071722023
-0.0009912499999999999,-4.972371659665314,0.8137565071722023
-0.0009909999999999999,-4.961291126626054,0.8137565071722023
-0.0009907499999999999,-4.953904104599877,0.8027182761747426
-0.0009905000000000001,-4.946517082573711,0.8100770968397113
-0.00099025,-4.953904104599877,0.8137565071722006
-0.00099,-4.95390410459988,0.81743591750469
-0.00098975,-4.950210593586794,0.81743591750469
-0.0009894999999999999,-4.946517082573708,0.81743591750469
-0.0009892499999999999,-4.942823571560619,0.8063976865072285
-0.0009889999999999999,-4.939130060547533,0.8100770968397146
-0.00098875,-4.935436549534449,0.8100770968397146
-0.0009885,-4.931743038521361,0.8027182761747392
-0.00098825,-4.935436549534447,0.8137565071722023
-0.0009879999999999999,-4.924356016495188,0.7916800451772761
-0.0009877499999999999,-4.916968994469014,0.7769624038473254
-0.0009874999999999999,-4.916968994469014,0.7769624038473304
-0.0009872500000000001,-4.916968994469014,0.7880006348447834
-0.000987,-4.924356016495184,0.7843212245123025
-0.00098675,-4.928049527508274,0.7769624038473254
-0.0009865,-4.913275483455927,0.7732829935148376
-0.0009862499999999999,-4.905888461429754,0.7732829935148376
-0.0009859999999999999,-4.902194950416673,0.7769624038473237
-0.0009857499999999999,-4.913275483455924,0.7732829935148376
-0.0009855,-4.905888461429758,0.7732829935148376
-0.00098525,-4.894807928390494,0.758565352184887
-0.000985,-4.883727395351234,0.7512065315199116
-0.0009847499999999999,-4.891114417377407,0.7622447625173746
-0.0009844999999999999,-4.887420906364321,0.76960358318235
-0.0009842499999999999,-4.891114417377397,0.7548859418523926
-0.0009840000000000001,-4.868953351298897,0.7401683005224551
-0.00098375,-4.872646862311973,0.7291300695249904
-0.0009835,-4.872646862311974,0.7328094798574731
-0.00098325,-4.857872818259628,0.7512065315199116
-0.0009829999999999999,-4.872646862311974,0.7475271211874238
-0.0009827499999999999,-4.876340373325057,0.7364888901899558
-0.0009824999999999999,-4.868953351298884,0.7254506591924911
-0.0009822500000000001,-4.861566329272717,0.7107330178625536
-0.000982,-4.846792285220368,0.7254506591924977
-0.00098175,-4.850485796233454,0.72177124886001
-0.0009815,-4.850485796233454,0.7070536075300592
-0.0009812499999999999,-4.843098774207281,0.7107330178625469
-0.0009809999999999999,-4.839405263194183,0.7144124281950379
-0.0009807500000000001,-4.813550686102599,0.7217712488600067
-0.0009805,-4.806163664076418,0.7254506591924961
-0.00098025,-4.813550686102587,0.7107330178625469
-0.00098,-4.820937708128761,0.7070536075300592
-0.0009797499999999999,-4.806163664076414,0.7033741971975715
-0.0009794999999999999,-4.798776642050233,0.7033741971975699
-0.0009792499999999999,-4.780309086984811,0.6996947868650822
-0.0009790000000000001,-4.787696109010978,0.6960153765325978
-0.00097875,-4.776615575971721,0.6849771455351331
-0.0009785,-4.769228553945548,0.6849771455351331
-0.00097825,-4.772922064958634,0.6776183248701577
-0.0009779999999999999,-4.780309086984808,0.6702595042051823
-0.0009777499999999999,-4.772922064958633,0.6629006835402086
-0.0009775000000000001,-4.76922855394555,0.666580093872693
-0.00097725,-4.758148020906293,0.6592212732077226
-0.000977,-4.743373976853941,0.6592212732077193
-0.00097675,-4.724906421788508,0.6445036318777685
-0.0009764999999999999,-4.739680465840855,0.6445036318777685
-0.00097625,-4.739680465840855,0.6371448112127931
-0.000976,-4.724906421788508,0.6481830422102561
-0.0009757499999999999,-4.713825888749247,0.6445036318777685
-0.0009754999999999999,-4.713825888749247,0.6334654008803055
-0.00097525,-4.706438866723074,0.6261065802153301
-0.000975,-4.695358333683815,0.6187477595503547
-0.0009747499999999999,-4.699051844696901,0.6113889388853793
-0.0009745,-4.684277800644554,0.6040301182204039
-0.00097425,-4.687971311657641,0.615068349217867
-0.0009739999999999999,-4.680584289631468,0.615068349217867
-0.00097375,-4.665810245579121,0.615068349217867
-0.0009735,-4.658423223552948,0.6113889388853793
-0.0009732499999999999,-4.665810245579121,0.5929918872229408
-0.000973,-4.654729712539861,0.5929918872229408
-0.00097275,-4.651036201526774,0.5819536562254778
-0.0009724999999999999,-4.654729712539861,0.57827424589299
-0.0009722499999999999,-4.632568646461341,0.5819536562254778
-0.000972,-4.617794602408995,0.5745948355605024
-0.00097175,-4.625181624435168,0.5709154252280146
-0.0009714999999999999,-4.617794602408995,0.5635566045630392
-0.00097125,-4.599327047343561,0.5561977838980638
-0.000971,-4.588246514304301,0.5525183735655762
-0.0009707499999999999,-4.588246514304301,0.5525183735655762
-0.0009705,-4.577165981265042,0.5341213219031378
-0.00097025,-4.577165981265042,0.5267625012381624
-0.0009699999999999999,-4.569778959238868,0.5230830909056747
-0.00096975,-4.566085448225781,0.519403680573187
-0.0009695,-4.555004915186522,0.5267625012381624
-0.00096925,-4.543924382147261,0.5341213219031378
-0.0009689999999999999,-4.547617893160348,0.5378007322356254
-0.00096875,-4.529150338094914,0.5230830909056747
-0.0009685,-4.540230871134175,0.5083654495757239
-0.0009682499999999999,-4.529150338094914,0.5120448599082116
-0.000968,-4.514376294042568,0.5083654495757239
-0.00096775,-4.510682783029481,0.5010066289107485
-0.0009674999999999999,-4.499602249990222,0.4973272185782609
-0.00096725,-4.492215227964048,0.4862889875807977
-0.000967,-4.477441183911702,0.471571346250847
-0.0009667499999999999,-4.473747672898615,0.4752507565833347
-0.0009665,-4.458973628846268,0.471571346250847
-0.00096625,-4.444199584793921,0.4678919359183593
-0.000966,-4.444199584793921,0.471571346250847
-0.0009657499999999999,-4.436812562767748,0.4605331152533839
-0.0009655,-4.425732029728488,0.4605331152533839
-0.00096525,-4.425732029728488,0.4421360635909455
-0.0009649999999999999,-4.414651496689228,0.4347772429259701
-0.00096475,-4.399877452636882,0.4310978325934824
-0.0009645,-4.388796919597621,0.4310978325934824
-0.0009642499999999999,-4.377716386558362,0.423739011928507
-0.000964,-4.377716386558362,0.4200596015960193
-0.00096375,-4.362942342506015,0.4163801912635317
-0.0009634999999999999,-4.348168298453668,0.4053419602660686
-0.0009632499999999999,-4.351861809466754,0.3979831396010932
-0.000963,-4.329700743388234,0.4016625499335809
-0.00096275,-4.322313721362061,0.4016625499335809
-0.0009624999999999999,-4.322313721362061,0.3943037292686055
-0.00096225,-4.318620210348975,0.3869449086036301
-0.000962,-4.307539677309715,0.3943037292686055
-0.0009617499999999999,-4.292765633257368,0.3795860879386547
-0.0009615,-4.289072122244281,0.3722272672736793
-0.00096125,-4.281685100218108,0.3611890362762163
-0.0009609999999999999,-4.277991589205022,0.3538302156112409
-0.00096075,-4.255830523126502,0.3538302156112409
-0.0009605,-4.244749990087241,0.3354331639488024
-0.0009602499999999999,-4.248443501100328,0.3354331639488024
-0.0009599999999999999,-4.248443501100328,0.3354331639488024
-0.00095975,-4.226282435021808,0.3243949329513394
-0.0009595,-4.222588924008722,0.3133567019538763
-0.0009592499999999999,-4.218895412995635,0.3096772916213886
-0.000959,-4.215201901982549,0.3023184709564132
-0.00095875,-4.181960302864768,0.3023184709564132
-0.0009584999999999999,-4.156105725773162,0.3133567019538763
-0.00095825,-4.152412214760075,0.3059978812889009
-0.000958,-4.152412214760075,0.2876008296264624
-0.0009577499999999999,-4.141331681720815,0.2839214192939747
-0.0009575,-4.137638170707729,0.269203777964024
-0.00095725,-4.122864126655382,0.2765625986289993
-0.000957,-4.119170615642295,0.2765625986289993
-0.0009567499999999999,-4.119170615642295,0.2655243676315363
-0.0009565,-4.108090082603035,0.2618449572990486
-0.00095625,-4.078541994498342,0.2581655469665609
-0.0009559999999999999,-4.082235505511428,0.2581655469665609
-0.00095575,-4.067461461459081,0.2508067263015855
-0.0009555,-4.045300395380562,0.2397684953041225
-0.0009552499999999999,-4.041606884367475,0.2434479056366101
-0.000955,-4.041606884367475,0.2360890849716348
-0.00095475,-4.030526351328215,0.2250508539741717
-0.0009544999999999999,-4.008365285249695,0.2176920333091963
-0.00095425,-4.004671774236608,0.2176920333091963
-0.000954,-3.993591241197348,0.2066538023117332
-0.00095375,-3.975123686131915,0.1956155713142702
-0.0009534999999999999,-3.967736664105741,0.1845773403168071
-0.00095325,-3.952962620053395,0.1808979299843194
-0.000953,-3.941882087014135,0.1956155713142702
-0.0009527499999999999,-3.938188576001048,0.1919361609817825
-0.0009525,-3.927108042961788,0.1772185196518317
-0.00095225,-3.919721020935615,0.1808979299843194
-0.0009519999999999999,-3.919721020935615,0.1661802886543686
-0.00095175,-3.886479421817835,0.1698596989868563
-0.0009515,-3.886479421817835,0.1661802886543686
-0.0009512499999999999,-3.879092399791662,0.1514626473244179
-0.0009509999999999999,-3.879092399791662,0.1330655956619794
-0.00095075,-3.856931333713141,0.1330655956619794
-0.0009505,-3.834770267634621,0.1220273646645164
-0.0009502499999999999,-3.816302712569188,0.1073097233345656
-0.00095,-3.805222179529928,0.1109891336670533
-0.00094975,-3.794141646490668,0.1073097233345656
-0.0009494999999999999,-3.794141646490668,0.0999509026695902
-0.00094925,-3.775674091425235,0.0962714923371025
-0.000949,-3.757206536359802,0.08523326133963943
-0.0009487499999999999,-3.753513025346715,0.09259208200461481
-0.0009485,-3.742432492307455,0.08523326133963943
-0.00094825,-3.738738981294368,0.08155385100715173
-0.0009479999999999999,-3.723964937242022,0.07787444067466405
-0.0009477499999999999,-3.709190893189675,0.06683620967720097
-0.0009475,-3.709190893189675,0.05211856834725021
-0.00094725,-3.683336316098068,0.03740092701729945
-0.0009469999999999999,-3.672255783058808,0.03740092701729945
-0.00094675,-3.661175250019548,0.03740092701729945
-0.0009465,-3.639014183941029,0.03740092701729945
-0.0009462499999999999,-3.624240139888682,0.03372151668481176
-0.000946,-3.620546628875595,0.03740092701729945
-0.00094575,-3.616853117862509,0.04108033734978714
-0.0009454999999999999,-3.598385562797075,0.03004210635232406
-0.00094525,-3.590998540770902,0.0153244650223733
-0.000945,-3.576224496718555,0.01164505468988561
-0.00094475,-3.554063430640035,-0.003072586640065156
-0.0009444999999999999,-3.546676408613862,-0.006751996972552847
-0.00094425,-3.542982897600775,-0.01779022797001592
-0.000944,-3.531902364561515,-0.02882845896747899
-0.0009437499999999999,-3.517128320509169,-0.02882845896747899
-0.0009435,-3.502354276456822,-0.03250786929996669
-0.00094325,-3.494967254430648,-0.02146963830250361
-0.0009429999999999999,-3.476499699365215,-0.03250786929996669
-0.00094275,-3.458032144299782,-0.03986668996494207
-0.0009425,-3.450645122273609,-0.05458433129489283
-0.0009422499999999999,-3.443258100247435,-0.05090492096240514
-0.000942,-3.432177567208175,-0.05090492096240514
-0.00094175,-3.424790545182002,-0.05458433129489283
-0.0009415,-3.413710012142742,-0.0693019726248436
-0.0009412499999999999,-3.395242457077309,-0.06194315195986821
-0.000941,-3.387855435051135,-0.08034020362230668
-0.00094075,-3.358307346946442,-0.08769902428728205
-0.0009404999999999999,-3.358307346946442,-0.09505784495225744
-0.00094025,-3.332452769854835,-0.1060960759497205
-0.00094,-3.321372236815575,-0.1024166656172328
-0.0009397499999999999,-3.310291703776315,-0.1134548966146959
-0.0009395,-3.288130637697795,-0.1060960759497205
-0.00093925,-3.277050104658536,-0.1171343069471836
-0.0009389999999999999,-3.262276060606189,-0.1318519482771343
-0.0009387499999999999,-3.247502016553842,-0.1318519482771343
-0.0009385,-3.229034461488409,-0.1465695896070851
-0.00093825,-3.229034461488409,-0.1465695896070851
-0.0009379999999999999,-3.217953928449149,-0.1392107689421097
-0.00093775,-3.203179884396802,-0.1502489999395728
-0.0009375,-3.181018818318282,-0.1502489999395728
-0.0009372499999999999,-3.166244774265936,-0.1649666412695236
-0.000937,-3.144083708187416,-0.1612872309370359
-0.00093675,-3.140390197174329,-0.1649666412695236
-0.0009364999999999999,-3.125616153121982,-0.1723254619344989
-0.00093625,-3.118229131095809,-0.1760048722669866
-0.000936,-3.099761576030376,-0.1907225135969374
-0.0009357499999999999,-3.092374554004202,-0.1944019239294251
-0.0009354999999999999,-3.066519976912596,-0.1980813342619128
-0.00093525,-3.059132954886422,-0.2054401549268882
-0.000935,-3.044358910834076,-0.2164783859243513
-0.0009347499999999999,-3.025891355768642,-0.2275166169218143
-0.0009345,-3.003730289690123,-0.2275166169218143
-0.00093425,-2.985262734624689,-0.2201577962568389
-0.0009339999999999999,-2.974182201585429,-0.2348754375867897
-0.00093375,-2.981569223611602,-0.2422342582517651
-0.0009335,-2.974182201585429,-0.2569518995817158
-0.0009332499999999999,-2.948327624493822,-0.2643107202466912
-0.000933,-2.952021135506909,-0.2679901305791789
-0.00093275,-2.922473047402216,-0.2679901305791789
-0.0009325,-2.907699003349869,-0.2679901305791789
-0.0009322499999999999,-2.892924959297523,-0.2716695409116666
